<?xml version="1.0" encoding="iso-8859-1"?>
<!-- Generator: Adobe Illustrator 16.0.0, SVG Export Plug-In . SVG Version: 6.00 Build 0)  -->
<!DOCTYPE svg PUBLIC "-//W3C//DTD SVG 1.1//EN" "http://www.w3.org/Graphics/SVG/1.1/DTD/svg11.dtd">
<svg version="1.1" id="Capa_1" xmlns="http://www.w3.org/2000/svg" xmlns:xlink="http://www.w3.org/1999/xlink" x="0px" y="0px"
	 width="471.023px" height="471.023px" viewBox="0 0 471.023 471.023" style="enable-background:new 0 0 471.023 471.023;"
	 xml:space="preserve">
<g>
	<g>
		<path d="M297.662,345.569c-5.374-7.689-9.313-20.27-1.018-69.356c3.226-3.189,6.307-6.323,9.196-9.301
			c3.936-2.309,8.436-5.587,13.004-10.255c-0.997,3.623-2.039,7.55-3.13,11.79c-18.061,70.109,70.166,65.185,70.166,65.185
			c-16.193-2.873-32.384-10.287-20.241-49.769c10.015-32.561-15.894-58.452-25.282-66.539c4.031-13.493,6.977-30.453,7.994-51.876
			C352.567,77.1,349.995-0.383,240.748,13.354C131.494-0.383,128.925,77.1,133.127,165.456c1.116,23.489,4.593,41.475,9.229,55.543
			c-0.336,0.729-0.475,1.373-0.475,1.373s-46.929,26.595-32.935,61.869c14,35.281-4.661,41.901-23.321,44.479
			c0,0,101.676-3.45,80.858-66.114c-0.383-1.15-0.748-2.225-1.122-3.311c3.619,3.278,7.137,5.778,10.275,7.618
			c2.892,2.989,5.981,6.111,9.209,9.301c7.057,41.75,5.258,57.106,1.114,65.622C121.8,354.854,16.571,386.538,0,459.257h235.511
			h235.513C444.069,392.697,358.006,360.525,297.662,345.569z M188.275,268.539c-1.311-1.303-2.607-2.617-3.896-3.927
			c-7.867-7.979-15.356-15.962-21.596-22.943l-7.843-42.879c-0.595-3.519-1.12-6.949-1.625-10.357
			c1.196-59.216,25.93-102.462,25.93-102.462l-7.849,27.477h69.342h69.349L294.388,78.12c0,0,31.294,50.63,33.165,114.214
			c-0.336,2.136-0.629,4.231-0.997,6.418l-7.851,42.925c-6.248,6.974-13.737,14.964-21.604,22.943
			c-1.286,1.311-2.572,2.625-3.891,3.927c-1.318,1.318-2.653,2.621-3.979,3.924c-19.741,19.352-40.118,36.632-48.49,36.632
			c-8.361,0-28.741-17.28-48.483-36.632C190.928,271.16,189.594,269.857,188.275,268.539z M240.748,420.661
			c-39.134,0-70.983-18.046-70.983-40.23c0-7.186,3.565-14.307,10.307-20.622l0.928-0.862c1.633-1.446,3.46-2.849,5.432-4.184
			l1.176-1.198c2.817-3.546,5.676-7.146,7.574-13.513c2.787-9.354,3.488-24.771-0.948-54.737
			c17.418,16.402,36.331,31.646,46.506,31.646c10.171,0,29.086-15.244,46.502-31.646c-4.937,33.369-3.494,48.686,0.169,57.827
			c1.871,4.677,4.323,7.742,6.765,10.824l0.873,0.812c1.992,1.347,3.84,2.773,5.482,4.232l0.882,0.81
			c6.736,6.319,10.303,13.449,10.303,20.626C311.724,402.615,279.885,420.661,240.748,420.661z"/>
	</g>
</g>
<g>
</g>
<g>
</g>
<g>
</g>
<g>
</g>
<g>
</g>
<g>
</g>
<g>
</g>
<g>
</g>
<g>
</g>
<g>
</g>
<g>
</g>
<g>
</g>
<g>
</g>
<g>
</g>
<g>
</g>
</svg>
